
{
"morsecode":
[
  {
    "iamhere":"·−"
},
  {
    "iamhere":"−···"
  },
  {
    "iamhere":"−·−·"
},
  {
    "iamhere":"−··"
  },
  {
    "iamhere":"·"
},
  {
    "iamhere":"··−·"
  },
  {
    "iamhere":"−−·"
},
  {
    "iamhere":"····"
  },
  {
    "iamhere":"··"
},
  {
    "iamhere":"·−−−"
  },
  {
    "iamhere":"−·−"
},
  {
    "iamhere":"·−··"
  },
  {
    "iamhere":"−−"
},
  {
    "iamhere":"−·"
  },
  {
    "iamhere":"−−−"
},
  {
    "iamhere":"·−−·"
  },
  {
    "iamhere":"−−·−"
},
  {
    "iamhere":"·−·"
  },
  {
    "iamhere":"···"
},
  {
    "iamhere":"−"
  },
  {
    "iamhere":"··−"
},
  {
    "iamhere":"···−"
  },
  {
    "iamhere":"·−−"
},
  {
    "iamhere":"−··−"
  },
  {
    "iamhere":"−·−−"
},
  {
    "iamhere":"−−··"
  }

]
}
